lab2/2_1/timing2_1.vcd
$date
	Wed Nov 22 07:37:47 2017
$end
$version
	Icarus Verilog
$end
$timescale
	1ps
$end
$scope module dassign2_1_tb $end
$var wire 1 ! clk $end
$var wire 16 " prod [15:0] $end
$var wire 1 # ready $end
$var reg 8 $ a [7:0] $end
$var reg 8 % b [7:0] $end
$var reg 16 & correct [15:0] $end
$var integer 32 ' i [31:0] $end
$var integer 32 ( mult_err [31:0] $end
$var reg 1 ) reset $end
$scope module clock_gen $end
$var reg 1 * clk $end
$upscope $end
$scope module multiply $end
$var wire 8 + ain [7:0] $end
$var wire 16 , aregin [15:0] $end
$var wire 16 - aregout [15:0] $end
$var wire 16 . ashifted [15:0] $end
$var wire 8 / bin [7:0] $end
$var wire 8 0 bregin [7:0] $end
$var wire 8 1 bregout [7:0] $end
$var wire 8 2 bshifted [7:0] $end
$var wire 1 ! clk $end
$var wire 16 3 partialproduct [15:0] $end
$var wire 16 4 prod [15:0] $end
$var wire 1 # ready $end
$var wire 1 5 reset $end
$var wire 16 6 sum [15:0] $end
$var wire 16 7 sumresetwire [15:0] $end
$scope module bshifter $end
$var wire 8 8 a [7:0] $end
$var wire 8 9 y [7:0] $end
$upscope $end
$scope module breset $end
$var wire 8 : a [7:0] $end
$var wire 8 ; b [7:0] $end
$var wire 1 5 sel $end
$var wire 8 < y [7:0] $end
$upscope $end
$scope module breg $end
$var wire 1 ! clk $end
$var wire 8 = d [7:0] $end
$var reg 8 > q [7:0] $end
$upscope $end
$scope module ashifter $end
$var wire 16 ? a [15:0] $end
$var wire 16 @ y [15:0] $end
$upscope $end
$scope module areset $end
$var wire 16 A a [15:0] $end
$var wire 16 B b [15:0] $end
$var wire 1 5 sel $end
$var wire 16 C y [15:0] $end
$upscope $end
$scope module areg $end
$var wire 1 ! clk $end
$var wire 16 D d [15:0] $end
$var reg 16 E q [15:0] $end
$upscope $end
$scope module multiplier $end
$var wire 16 F a [15:0] $end
$var wire 8 G b [7:0] $end
$var wire 16 H pp [15:0] $end
$upscope $end
$scope module adder $end
$var wire 16 I a [15:0] $end
$var wire 16 J b [15:0] $end
$var wire 16 K sum [15:0] $end
$upscope $end
$scope module accumreset $end
$var wire 16 L a [15:0] $end
$var wire 16 M b [15:0] $end
$var wire 1 5 sel $end
$var wire 16 N y [15:0] $end
$upscope $end
$scope module accumulator $end
$var wire 1 ! clk $end
$var wire 16 O d [15:0] $end
$var reg 16 P q [15:0] $end
$upscope $end
$scope module isdone $end
$var wire 16 Q a [15:0] $end
$var wire 8 R b [7:0] $end
$var wire 1 # done $end
$upscope $end
$upscope $end
$upscope $end
$enddefinitions $end
#0
$dumpvars
bx R
bx Q
bx P
bx O
bx N
b0 M
bx L
bx K
bx J
bx I
bx H
bx G
bx F
bx E
bx D
bx C
b0xxxxxxxx B
bx0 A
bx0 @
bx ?
bx >
bx =
bx <
bx ;
b0xxxxxxx :
b0xxxxxxx 9
bx 8
bx 7
bx 6
x5
bx 4
bx 3
b0xxxxxxx 2
bx 1
bx 0
bx /
bx0 .
bx -
bx ,
bx +
0*
x)
b0 (
b0 '
bx &
bx %
bx $
x#
bx "
0!
$end
#30000
b1001000100100 &
1)
15
b10000001 %
b10000001 /
b10000001 ;
b100100 $
b100100 +
b100100 B
1*
1!
#33000
b0 7
b0 N
b0 O
b10000001 0
b10000001 <
b10000001 =
b100100 ,
b100100 C
b100100 D
#60000
0*
0!
#90000
0)
05
b0 %
b0 /
b0 ;
b0 $
b0 +
b0 B
1*
1!
#93000
b1001000 .
b1001000 @
b1001000 A
b1000000 2
b1000000 9
b1000000 :
b0 P
b0 "
b0 4
b0 J
b100100 E
b100100 -
b100100 ?
b100100 F
b100100 Q
b10000001 >
b10000001 1
b10000001 8
b10000001 G
b10000001 R
bx 7
bx N
bx O
b0xxxxxxx 0
b0xxxxxxx <
b0xxxxxxx =
bx0 ,
bx0 C
bx0 D
#94000
b100100 3
b100100 H
b100100 I
#96000
b1001000 ,
b1001000 C
b1001000 D
b1000000 0
b1000000 <
b1000000 =
#97000
0#
#120000
0*
0!
#142000
b100100 6
b100100 K
b100100 L
#145000
b100100 7
b100100 N
b100100 O
#150000
1*
1!
#153000
b100000 2
b100000 9
b100000 :
b10010000 .
b10010000 @
b10010000 A
b1000000 >
b1000000 1
b1000000 8
b1000000 G
b1000000 R
b1001000 E
b1001000 -
b1001000 ?
b1001000 F
b1001000 Q
b100100 P
b100100 "
b100100 4
b100100 J
#154000
b0 3
b0 H
b0 I
#156000
b100000 0
b100000 <
b100000 =
b10010000 ,
b10010000 C
b10010000 D
#180000
0*
0!
#210000
1*
1!
#213000
b100100000 .
b100100000 @
b100100000 A
b10000 2
b10000 9
b10000 :
b10010000 E
b10010000 -
b10010000 ?
b10010000 F
b10010000 Q
b100000 >
b100000 1
b100000 8
b100000 G
b100000 R
#216000
b100100000 ,
b100100000 C
b100100000 D
b10000 0
b10000 <
b10000 =
#240000
0*
0!
#270000
1*
1!
#273000
b1000 2
b1000 9
b1000 :
b1001000000 .
b1001000000 @
b1001000000 A
b10000 >
b10000 1
b10000 8
b10000 G
b10000 R
b100100000 E
b100100000 -
b100100000 ?
b100100000 F
b100100000 Q
#276000
b1000 0
b1000 <
b1000 =
b1001000000 ,
b1001000000 C
b1001000000 D
#300000
0*
0!
#330000
1*
1!
#333000
b10010000000 .
b10010000000 @
b10010000000 A
b100 2
b100 9
b100 :
b1001000000 E
b1001000000 -
b1001000000 ?
b1001000000 F
b1001000000 Q
b1000 >
b1000 1
b1000 8
b1000 G
b1000 R
#336000
b10010000000 ,
b10010000000 C
b10010000000 D
b100 0
b100 <
b100 =
#360000
0*
0!
#390000
1*
1!
#393000
b10 2
b10 9
b10 :
b100100000000 .
b100100000000 @
b100100000000 A
b100 >
b100 1
b100 8
b100 G
b100 R
b10010000000 E
b10010000000 -
b10010000000 ?
b10010000000 F
b10010000000 Q
#396000
b10 0
b10 <
b10 =
b100100000000 ,
b100100000000 C
b100100000000 D
#420000
0*
0!
#450000
1*
1!
#453000
b1001000000000 .
b1001000000000 @
b1001000000000 A
b1 2
b1 9
b1 :
b100100000000 E
b100100000000 -
b100100000000 ?
b100100000000 F
b100100000000 Q
b10 >
b10 1
b10 8
b10 G
b10 R
#456000
b1001000000000 ,
b1001000000000 C
b1001000000000 D
b1 0
b1 <
b1 =
#480000
0*
0!
#510000
1*
1!
#513000
b0 2
b0 9
b0 :
b10010000000000 .
b10010000000000 @
b10010000000000 A
b1 >
b1 1
b1 8
b1 G
b1 R
b1001000000000 E
b1001000000000 -
b1001000000000 ?
b1001000000000 F
b1001000000000 Q
#514000
b1001000000000 3
b1001000000000 H
b1001000000000 I
#516000
b0 0
b0 <
b0 =
b10010000000000 ,
b10010000000000 C
b10010000000000 D
#540000
0*
0!
#562000
b1001000100100 6
b1001000100100 K
b1001000100100 L
#565000
b1001000100100 7
b1001000100100 N
b1001000100100 O
#570000
1*
1!
#573000
b100100000000000 .
b100100000000000 @
b100100000000000 A
b1001000100100 P
b1001000100100 "
b1001000100100 4
b1001000100100 J
b10010000000000 E
b10010000000000 -
b10010000000000 ?
b10010000000000 F
b10010000000000 Q
b0 >
b0 1
b0 8
b0 G
b0 R
#574000
b0 3
b0 H
b0 I
#576000
b100100000000000 ,
b100100000000000 C
b100100000000000 D
#577000
1#
#600000
0*
0!
#630000
b1 '
1*
1!
#633000
b1001000000000000 .
b1001000000000000 @
b1001000000000000 A
b100100000000000 E
b100100000000000 -
b100100000000000 ?
b100100000000000 F
b100100000000000 Q
#636000
b1001000000000000 ,
b1001000000000000 C
b1001000000000000 D
#660000
0*
0!
#690000
b1101111011 &
1)
15
b1100011 %
b1100011 /
b1100011 ;
b1001 $
b1001 +
b1001 B
1*
1!
#693000
b10000000000000 .
b10000000000000 @
b10000000000000 A
b1001000000000000 E
b1001000000000000 -
b1001000000000000 ?
b1001000000000000 F
b1001000000000000 Q
b1100011 0
b1100011 <
b1100011 =
b1001 ,
b1001 C
b1001 D
b0 7
b0 N
b0 O
#720000
0*
0!
#750000
0)
05
b0 %
b0 /
b0 ;
b0 $
b0 +
b0 B
1*
1!
#753000
b110001 2
b110001 9
b110001 :
b10010 .
b10010 @
b10010 A
b1100011 >
b1100011 1
b1100011 8
b1100011 G
b1100011 R
b1001 E
b1001 -
b1001 ?
b1001 F
b1001 Q
b0 P
b0 "
b0 4
b0 J
b1001000100100 7
b1001000100100 N
b1001000100100 O
b0 0
b0 <
b0 =
b10000000000000 ,
b10000000000000 C
b10000000000000 D
#754000
b1001 3
b1001 H
b1001 I
#756000
b110001 0
b110001 <
b110001 =
b10010 ,
b10010 C
b10010 D
#757000
0#
#780000
0*
0!
#802000
b1001 6
b1001 K
b1001 L
#805000
b1001 7
b1001 N
b1001 O
#810000
1*
1!
#813000
b100100 .
b100100 @
b100100 A
b11000 2
b11000 9
b11000 :
b1001 P
b1001 "
b1001 4
b1001 J
b10010 E
b10010 -
b10010 ?
b10010 F
b10010 Q
b110001 >
b110001 1
b110001 8
b110001 G
b110001 R
#814000
b10010 3
b10010 H
b10010 I
#816000
b100100 ,
b100100 C
b100100 D
b11000 0
b11000 <
b11000 =
#840000
0*
0!
#862000
b11011 6
b11011 K
b11011 L
#865000
b11011 7
b11011 N
b11011 O
#870000
1*
1!
#873000
b1100 2
b1100 9
b1100 :
b1001000 .
b1001000 @
b1001000 A
b11000 >
b11000 1
b11000 8
b11000 G
b11000 R
b100100 E
b100100 -
b100100 ?
b100100 F
b100100 Q
b11011 P
b11011 "
b11011 4
b11011 J
#874000
b0 3
b0 H
b0 I
#876000
b1100 0
b1100 <
b1100 =
b1001000 ,
b1001000 C
b1001000 D
#900000
0*
0!
#930000
1*
1!
#933000
b10010000 .
b10010000 @
b10010000 A
b110 2
b110 9
b110 :
b1001000 E
b1001000 -
b1001000 ?
b1001000 F
b1001000 Q
b1100 >
b1100 1
b1100 8
b1100 G
b1100 R
#936000
b10010000 ,
b10010000 C
b10010000 D
b110 0
b110 <
b110 =
#960000
0*
0!
#990000
1*
1!
#993000
b11 2
b11 9
b11 :
b100100000 .
b100100000 @
b100100000 A
b110 >
b110 1
b110 8
b110 G
b110 R
b10010000 E
b10010000 -
b10010000 ?
b10010000 F
b10010000 Q
#996000
b11 0
b11 <
b11 =
b100100000 ,
b100100000 C
b100100000 D
#1020000
0*
0!
#1050000
1*
1!
#1053000
b1001000000 .
b1001000000 @
b1001000000 A
b1 2
b1 9
b1 :
b100100000 E
b100100000 -
b100100000 ?
b100100000 F
b100100000 Q
b11 >
b11 1
b11 8
b11 G
b11 R
#1054000
b100100000 3
b100100000 H
b100100000 I
#1056000
b1001000000 ,
b1001000000 C
b1001000000 D
b1 0
b1 <
b1 =
#1080000
0*
0!
#1102000
b100111011 6
b100111011 K
b100111011 L
#1105000
b100111011 7
b100111011 N
b100111011 O
#1110000
1*
1!
#1113000
b0 2
b0 9
b0 :
b10010000000 .
b10010000000 @
b10010000000 A
b1 >
b1 1
b1 8
b1 G
b1 R
b1001000000 E
b1001000000 -
b1001000000 ?
b1001000000 F
b1001000000 Q
b100111011 P
b100111011 "
b100111011 4
b100111011 J
#1114000
b1001000000 3
b1001000000 H
b1001000000 I
#1116000
b0 0
b0 <
b0 =
b10010000000 ,
b10010000000 C
b10010000000 D
#1140000
0*
0!
#1162000
b1101111011 6
b1101111011 K
b1101111011 L
#1165000
b1101111011 7
b1101111011 N
b1101111011 O
#1170000
1*
1!
#1173000
b100100000000 .
b100100000000 @
b100100000000 A
b1101111011 P
b1101111011 "
b1101111011 4
b1101111011 J
b10010000000 E
b10010000000 -
b10010000000 ?
b10010000000 F
b10010000000 Q
b0 >
b0 1
b0 8
b0 G
b0 R
#1174000
b0 3
b0 H
b0 I
#1176000
b100100000000 ,
b100100000000 C
b100100000000 D
#1177000
1#
#1200000
0*
0!
#1230000
b10 '
1*
1!
#1233000
b1001000000000 .
b1001000000000 @
b1001000000000 A
b100100000000 E
b100100000000 -
b100100000000 ?
b100100000000 F
b100100000000 Q
#1236000
b1001000000000 ,
b1001000000000 C
b1001000000000 D
#1260000
0*
0!
#1290000
b11100101001 &
1)
15
b10001101 %
b10001101 /
b10001101 ;
b1101 $
b1101 +
b1101 B
1*
1!
#1293000
b10010000000000 .
b10010000000000 @
b10010000000000 A
b1001000000000 E
b1001000000000 -
b1001000000000 ?
b1001000000000 F
b1001000000000 Q
b10001101 0
b10001101 <
b10001101 =
b1101 ,
b1101 C
b1101 D
b0 7
b0 N
b0 O
#1320000
0*
0!
#1350000
0)
05
b0 %
b0 /
b0 ;
b0 $
b0 +
b0 B
1*
1!
#1353000
b1000110 2
b1000110 9
b1000110 :
b11010 .
b11010 @
b11010 A
b10001101 >
b10001101 1
b10001101 8
b10001101 G
b10001101 R
b1101 E
b1101 -
b1101 ?
b1101 F
b1101 Q
b0 P
b0 "
b0 4
b0 J
b1101111011 7
b1101111011 N
b1101111011 O
b0 0
b0 <
b0 =
b10010000000000 ,
b10010000000000 C
b10010000000000 D
#1354000
b1101 3
b1101 H
b1101 I
#1356000
b1000110 0
b1000110 <
b1000110 =
b11010 ,
b11010 C
b11010 D
#1357000
0#
#1380000
0*
0!
#1402000
b1101 6
b1101 K
b1101 L
#1405000
b1101 7
b1101 N
b1101 O
#1410000
1*
1!
#1413000
b110100 .
b110100 @
b110100 A
b100011 2
b100011 9
b100011 :
b1101 P
b1101 "
b1101 4
b1101 J
b11010 E
b11010 -
b11010 ?
b11010 F
b11010 Q
b1000110 >
b1000110 1
b1000110 8
b1000110 G
b1000110 R
#1414000
b0 3
b0 H
b0 I
#1416000
b110100 ,
b110100 C
b110100 D
b100011 0
b100011 <
b100011 =
#1440000
0*
0!
#1470000
1*
1!
#1473000
b10001 2
b10001 9
b10001 :
b1101000 .
b1101000 @
b1101000 A
b100011 >
b100011 1
b100011 8
b100011 G
b100011 R
b110100 E
b110100 -
b110100 ?
b110100 F
b110100 Q
#1474000
b110100 3
b110100 H
b110100 I
#1476000
b10001 0
b10001 <
b10001 =
b1101000 ,
b1101000 C
b1101000 D
#1500000
0*
0!
#1522000
b1000001 6
b1000001 K
b1000001 L
#1525000
b1000001 7
b1000001 N
b1000001 O
#1530000
1*
1!
#1533000
b11010000 .
b11010000 @
b11010000 A
b1000 2
b1000 9
b1000 :
b1000001 P
b1000001 "
b1000001 4
b1000001 J
b1101000 E
b1101000 -
b1101000 ?
b1101000 F
b1101000 Q
b10001 >
b10001 1
b10001 8
b10001 G
b10001 R
#1534000
b1101000 3
b1101000 H
b1101000 I
#1536000
b11010000 ,
b11010000 C
b11010000 D
b1000 0
b1000 <
b1000 =
#1560000
0*
0!
#1582000
b10101001 6
b10101001 K
b10101001 L
#1585000
b10101001 7
b10101001 N
b10101001 O
#1590000
1*
1!
#1593000
b100 2
b100 9
b100 :
b110100000 .
b110100000 @
b110100000 A
b1000 >
b1000 1
b1000 8
b1000 G
b1000 R
b11010000 E
b11010000 -
b11010000 ?
b11010000 F
b11010000 Q
b10101001 P
b10101001 "
b10101001 4
b10101001 J
#1594000
b0 3
b0 H
b0 I
#1596000
b100 0
b100 <
b100 =
b110100000 ,
b110100000 C
b110100000 D
#1620000
0*
0!
#1650000
1*
1!
#1653000
b1101000000 .
b1101000000 @
b1101000000 A
b10 2
b10 9
b10 :
b110100000 E
b110100000 -
b110100000 ?
b110100000 F
b110100000 Q
b100 >
b100 1
b100 8
b100 G
b100 R
#1656000
b1101000000 ,
b1101000000 C
b1101000000 D
b10 0
b10 <
b10 =
#1680000
0*
0!
#1710000
1*
1!
#1713000
b1 2
b1 9
b1 :
b11010000000 .
b11010000000 @
b11010000000 A
b10 >
b10 1
b10 8
b10 G
b10 R
b1101000000 E
b1101000000 -
b1101000000 ?
b1101000000 F
b1101000000 Q
#1716000
b1 0
b1 <
b1 =
b11010000000 ,
b11010000000 C
b11010000000 D
#1740000
0*
0!
#1770000
1*
1!
#1773000
b110100000000 .
b110100000000 @
b110100000000 A
b0 2
b0 9
b0 :
b11010000000 E
b11010000000 -
b11010000000 ?
b11010000000 F
b11010000000 Q
b1 >
b1 1
b1 8
b1 G
b1 R
#1774000
b11010000000 3
b11010000000 H
b11010000000 I
#1776000
b110100000000 ,
b110100000000 C
b110100000000 D
b0 0
b0 <
b0 =
#1800000
0*
0!
#1822000
b11100101001 6
b11100101001 K
b11100101001 L
#1825000
b11100101001 7
b11100101001 N
b11100101001 O
#1830000
1*
1!
#1833000
b1101000000000 .
b1101000000000 @
b1101000000000 A
b0 >
b0 1
b0 8
b0 G
b0 R
b110100000000 E
b110100000000 -
b110100000000 ?
b110100000000 F
b110100000000 Q
b11100101001 P
b11100101001 "
b11100101001 4
b11100101001 J
#1834000
b0 3
b0 H
b0 I
#1836000
b1101000000000 ,
b1101000000000 C
b1101000000000 D
#1837000
1#
#1860000
0*
0!
#1890000
b11 '
1*
1!
#1893000
b11010000000000 .
b11010000000000 @
b11010000000000 A
b1101000000000 E
b1101000000000 -
b1101000000000 ?
b1101000000000 F
b1101000000000 Q
#1896000
b11010000000000 ,
b11010000000000 C
b11010000000000 D
#1920000
0*
0!
#1950000
b11100011010 &
1)
15
b10010 %
b10010 /
b10010 ;
b1100101 $
b1100101 +
b1100101 B
1*
1!
#1953000
b110100000000000 .
b110100000000000 @
b110100000000000 A
b11010000000000 E
b11010000000000 -
b11010000000000 ?
b11010000000000 F
b11010000000000 Q
b10010 0
b10010 <
b10010 =
b1100101 ,
b1100101 C
b1100101 D
b0 7
b0 N
b0 O
#1980000
0*
0!
#2010000
0)
05
b0 %
b0 /
b0 ;
b0 $
b0 +
b0 B
1*
1!
#2013000
b11001010 .
b11001010 @
b11001010 A
b1001 2
b1001 9
b1001 :
b0 P
b0 "
b0 4
b0 J
b1100101 E
b1100101 -
b1100101 ?
b1100101 F
b1100101 Q
b10010 >
b10010 1
b10010 8
b10010 G
b10010 R
b11100101001 7
b11100101001 N
b11100101001 O
b0 0
b0 <
b0 =
b110100000000000 ,
b110100000000000 C
b110100000000000 D
#2016000
b11001010 ,
b11001010 C
b11001010 D
b1001 0
b1001 <
b1001 =
#2017000
0#
#2040000
0*
0!
#2061000
b0 6
b0 K
b0 L
#2064000
b0 7
b0 N
b0 O
#2070000
1*
1!
#2073000
b100 2
b100 9
b100 :
b110010100 .
b110010100 @
b110010100 A
b1001 >
b1001 1
b1001 8
b1001 G
b1001 R
b11001010 E
b11001010 -
b11001010 ?
b11001010 F
b11001010 Q
#2074000
b11001010 3
b11001010 H
b11001010 I
#2076000
b100 0
b100 <
b100 =
b110010100 ,
b110010100 C
b110010100 D
#2100000
0*
0!
#2122000
b11001010 6
b11001010 K
b11001010 L
#2125000
b11001010 7
b11001010 N
b11001010 O
#2130000
1*
1!
#2133000
b1100101000 .
b1100101000 @
b1100101000 A
b10 2
b10 9
b10 :
b11001010 P
b11001010 "
b11001010 4
b11001010 J
b110010100 E
b110010100 -
b110010100 ?
b110010100 F
b110010100 Q
b100 >
b100 1
b100 8
b100 G
b100 R
#2134000
b0 3
b0 H
b0 I
#2136000
b1100101000 ,
b1100101000 C
b1100101000 D
b10 0
b10 <
b10 =
#2160000
0*
0!
#2190000
1*
1!
#2193000
b1 2
b1 9
b1 :
b11001010000 .
b11001010000 @
b11001010000 A
b10 >
b10 1
b10 8
b10 G
b10 R
b1100101000 E
b1100101000 -
b1100101000 ?
b1100101000 F
b1100101000 Q
#2196000
b1 0
b1 <
b1 =
b11001010000 ,
b11001010000 C
b11001010000 D
#2220000
0*
0!
#2250000
1*
1!
#2253000
b110010100000 .
b110010100000 @
b110010100000 A
b0 2
b0 9
b0 :
b11001010000 E
b11001010000 -
b11001010000 ?
b11001010000 F
b11001010000 Q
b1 >
b1 1
b1 8
b1 G
b1 R
#2254000
b11001010000 3
b11001010000 H
b11001010000 I
#2256000
b110010100000 ,
b110010100000 C
b110010100000 D
b0 0
b0 <
b0 =
#2280000
0*
0!
#2302000
b11100011010 6
b11100011010 K
b11100011010 L
#2305000
b11100011010 7
b11100011010 N
b11100011010 O
#2310000
1*
1!
#2313000
b1100101000000 .
b1100101000000 @
b1100101000000 A
b0 >
b0 1
b0 8
b0 G
b0 R
b110010100000 E
b110010100000 -
b110010100000 ?
b110010100000 F
b110010100000 Q
b11100011010 P
b11100011010 "
b11100011010 4
b11100011010 J
#2314000
b0 3
b0 H
b0 I
#2316000
b1100101000000 ,
b1100101000000 C
b1100101000000 D
#2317000
1#
#2340000
0*
0!
#2370000
b100 '
1*
1!
#2373000
b11001010000000 .
b11001010000000 @
b11001010000000 A
b1100101000000 E
b1100101000000 -
b1100101000000 ?
b1100101000000 F
b1100101000000 Q
#2376000
b11001010000000 ,
b11001010000000 C
b11001010000000 D
#2400000
0*
0!
#2430000
b1101 &
1)
15
b1101 %
b1101 /
b1101 ;
b1 $
b1 +
b1 B
1*
1!
#2433000
b110010100000000 .
b110010100000000 @
b110010100000000 A
b11001010000000 E
b11001010000000 -
b11001010000000 ?
b11001010000000 F
b11001010000000 Q
b1101 0
b1101 <
b1101 =
b1 ,
b1 C
b1 D
b0 7
b0 N
b0 O
#2460000
0*
0!
#2490000
0)
05
b0 %
b0 /
b0 ;
b0 $
b0 +
b0 B
1*
1!
#2493000
b10 .
b10 @
b10 A
b110 2
b110 9
b110 :
b0 P
b0 "
b0 4
b0 J
b1 E
b1 -
b1 ?
b1 F
b1 Q
b1101 >
b1101 1
b1101 8
b1101 G
b1101 R
b11100011010 7
b11100011010 N
b11100011010 O
b0 0
b0 <
b0 =
b110010100000000 ,
b110010100000000 C
b110010100000000 D
#2494000
b1 3
b1 H
b1 I
#2496000
b10 ,
b10 C
b10 D
b110 0
b110 <
b110 =
#2497000
0#
#2520000
0*
0!
#2542000
b1 6
b1 K
b1 L
#2545000
b1 7
b1 N
b1 O
#2550000
1*
1!
#2553000
b11 2
b11 9
b11 :
b100 .
b100 @
b100 A
b110 >
b110 1
b110 8
b110 G
b110 R
b10 E
b10 -
b10 ?
b10 F
b10 Q
b1 P
b1 "
b1 4
b1 J
#2554000
b0 3
b0 H
b0 I
#2556000
b11 0
b11 <
b11 =
b100 ,
b100 C
b100 D
#2580000
0*
0!
#2610000
1*
1!
#2613000
b1000 .
b1000 @
b1000 A
b1 2
b1 9
b1 :
b100 E
b100 -
b100 ?
b100 F
b100 Q
b11 >
b11 1
b11 8
b11 G
b11 R
#2614000
b100 3
b100 H
b100 I
#2616000
b1000 ,
b1000 C
b1000 D
b1 0
b1 <
b1 =
#2640000
0*
0!
#2662000
b101 6
b101 K
b101 L
#2665000
b101 7
b101 N
b101 O
#2670000
1*
1!
#2673000
b0 2
b0 9
b0 :
b10000 .
b10000 @
b10000 A
b1 >
b1 1
b1 8
b1 G
b1 R
b1000 E
b1000 -
b1000 ?
b1000 F
b1000 Q
b101 P
b101 "
b101 4
b101 J
#2674000
b1000 3
b1000 H
b1000 I
#2676000
b0 0
b0 <
b0 =
b10000 ,
b10000 C
b10000 D
#2700000
0*
0!
#2722000
b1101 6
b1101 K
b1101 L
#2725000
b1101 7
b1101 N
b1101 O
#2730000
1*
1!
#2733000
b100000 .
b100000 @
b100000 A
b1101 P
b1101 "
b1101 4
b1101 J
b10000 E
b10000 -
b10000 ?
b10000 F
b10000 Q
b0 >
b0 1
b0 8
b0 G
b0 R
#2734000
b0 3
b0 H
b0 I
#2736000
b100000 ,
b100000 C
b100000 D
#2737000
1#
#2760000
0*
0!
#2790000
b101 '
1*
1!
#2793000
b1000000 .
b1000000 @
b1000000 A
b100000 E
b100000 -
b100000 ?
b100000 F
b100000 Q
#2796000
b1000000 ,
b1000000 C
b1000000 D
#2820000
0*
0!
#2850000
b1110000011110 &
1)
15
b111101 %
b111101 /
b111101 ;
b1110110 $
b1110110 +
b1110110 B
1*
1!
#2853000
b10000000 .
b10000000 @
b10000000 A
b1000000 E
b1000000 -
b1000000 ?
b1000000 F
b1000000 Q
b111101 0
b111101 <
b111101 =
b1110110 ,
b1110110 C
b1110110 D
b0 7
b0 N
b0 O
#2880000
0*
0!
#2910000
0)
05
b0 %
b0 /
b0 ;
b0 $
b0 +
b0 B
1*
1!
#2913000
b11110 2
b11110 9
b11110 :
b11101100 .
b11101100 @
b11101100 A
b111101 >
b111101 1
b111101 8
b111101 G
b111101 R
b1110110 E
b1110110 -
b1110110 ?
b1110110 F
b1110110 Q
b0 P
b0 "
b0 4
b0 J
b1101 7
b1101 N
b1101 O
b0 0
b0 <
b0 =
b10000000 ,
b10000000 C
b10000000 D
#2914000
b1110110 3
b1110110 H
b1110110 I
#2916000
b11110 0
b11110 <
b11110 =
b11101100 ,
b11101100 C
b11101100 D
#2917000
0#
#2940000
0*
0!
#2962000
b1110110 6
b1110110 K
b1110110 L
#2965000
b1110110 7
b1110110 N
b1110110 O
#2970000
1*
1!
#2973000
b111011000 .
b111011000 @
b111011000 A
b1111 2
b1111 9
b1111 :
b1110110 P
b1110110 "
b1110110 4
b1110110 J
b11101100 E
b11101100 -
b11101100 ?
b11101100 F
b11101100 Q
b11110 >
b11110 1
b11110 8
b11110 G
b11110 R
#2974000
b0 3
b0 H
b0 I
#2976000
b111011000 ,
b111011000 C
b111011000 D
b1111 0
b1111 <
b1111 =
#3000000
0*
0!
#3030000
1*
1!
#3033000
b111 2
b111 9
b111 :
b1110110000 .
b1110110000 @
b1110110000 A
b1111 >
b1111 1
b1111 8
b1111 G
b1111 R
b111011000 E
b111011000 -
b111011000 ?
b111011000 F
b111011000 Q
#3034000
b111011000 3
b111011000 H
b111011000 I
#3036000
b111 0
b111 <
b111 =
b1110110000 ,
b1110110000 C
b1110110000 D
#3060000
0*
0!
#3082000
b1001001110 6
b1001001110 K
b1001001110 L
#3085000
b1001001110 7
b1001001110 N
b1001001110 O
#3090000
1*
1!
#3093000
b11101100000 .
b11101100000 @
b11101100000 A
b11 2
b11 9
b11 :
b1001001110 P
b1001001110 "
b1001001110 4
b1001001110 J
b1110110000 E
b1110110000 -
b1110110000 ?
b1110110000 F
b1110110000 Q
b111 >
b111 1
b111 8
b111 G
b111 R
#3094000
b1110110000 3
b1110110000 H
b1110110000 I
#3096000
b11101100000 ,
b11101100000 C
b11101100000 D
b11 0
b11 <
b11 =
#3120000
0*
0!
#3142000
b10111111110 6
b10111111110 K
b10111111110 L
#3145000
b10111111110 7
b10111111110 N
b10111111110 O
#3150000
1*
1!
#3153000
b1 2
b1 9
b1 :
b111011000000 .
b111011000000 @
b111011000000 A
b11 >
b11 1
b11 8
b11 G
b11 R
b11101100000 E
b11101100000 -
b11101100000 ?
b11101100000 F
b11101100000 Q
b10111111110 P
b10111111110 "
b10111111110 4
b10111111110 J
#3154000
b11101100000 3
b11101100000 H
b11101100000 I
#3156000
b1 0
b1 <
b1 =
b111011000000 ,
b111011000000 C
b111011000000 D
#3180000
0*
0!
#3202000
b110101011110 6
b110101011110 K
b110101011110 L
#3205000
b110101011110 7
b110101011110 N
b110101011110 O
#3210000
1*
1!
#3213000
b1110110000000 .
b1110110000000 @
b1110110000000 A
b0 2
b0 9
b0 :
b110101011110 P
b110101011110 "
b110101011110 4
b110101011110 J
b111011000000 E
b111011000000 -
b111011000000 ?
b111011000000 F
b111011000000 Q
b1 >
b1 1
b1 8
b1 G
b1 R
#3214000
b111011000000 3
b111011000000 H
b111011000000 I
#3216000
b1110110000000 ,
b1110110000000 C
b1110110000000 D
b0 0
b0 <
b0 =
#3240000
0*
0!
#3262000
b1110000011110 6
b1110000011110 K
b1110000011110 L
#3265000
b1110000011110 7
b1110000011110 N
b1110000011110 O
#3270000
1*
1!
#3273000
b11101100000000 .
b11101100000000 @
b11101100000000 A
b0 >
b0 1
b0 8
b0 G
b0 R
b1110110000000 E
b1110110000000 -
b1110110000000 ?
b1110110000000 F
b1110110000000 Q
b1110000011110 P
b1110000011110 "
b1110000011110 4
b1110000011110 J
#3274000
b0 3
b0 H
b0 I
#3276000
b11101100000000 ,
b11101100000000 C
b11101100000000 D
#3277000
1#
#3300000
0*
0!
#3330000
b110 '
1*
1!
#3333000
b111011000000000 .
b111011000000000 @
b111011000000000 A
b11101100000000 E
b11101100000000 -
b11101100000000 ?
b11101100000000 F
b11101100000000 Q
#3336000
b111011000000000 ,
b111011000000000 C
b111011000000000 D
#3360000
0*
0!
#3390000
b1000000110011100 &
1)
15
b10001100 %
b10001100 /
b10001100 ;
b11101101 $
b11101101 +
b11101101 B
1*
1!
#3393000
b1110110000000000 .
b1110110000000000 @
b1110110000000000 A
b111011000000000 E
b111011000000000 -
b111011000000000 ?
b111011000000000 F
b111011000000000 Q
b10001100 0
b10001100 <
b10001100 =
b11101101 ,
b11101101 C
b11101101 D
b0 7
b0 N
b0 O
#3420000
0*
0!
#3450000
0)
05
b0 %
b0 /
b0 ;
b0 $
b0 +
b0 B
1*
1!
#3453000
b111011010 .
b111011010 @
b111011010 A
b1000110 2
b1000110 9
b1000110 :
b0 P
b0 "
b0 4
b0 J
b11101101 E
b11101101 -
b11101101 ?
b11101101 F
b11101101 Q
b10001100 >
b10001100 1
b10001100 8
b10001100 G
b10001100 R
b1110000011110 7
b1110000011110 N
b1110000011110 O
b0 0
b0 <
b0 =
b1110110000000000 ,
b1110110000000000 C
b1110110000000000 D
#3456000
b111011010 ,
b111011010 C
b111011010 D
b1000110 0
b1000110 <
b1000110 =
#3457000
0#
#3480000
0*
0!
#3501000
b0 6
b0 K
b0 L
#3504000
b0 7
b0 N
b0 O
#3510000
1*
1!
#3513000
b100011 2
b100011 9
b100011 :
b1110110100 .
b1110110100 @
b1110110100 A
b1000110 >
b1000110 1
b1000110 8
b1000110 G
b1000110 R
b111011010 E
b111011010 -
b111011010 ?
b111011010 F
b111011010 Q
