lab2/2_2/timing2_2.vcd
$date
	Fri Nov 24 23:19:01 2017
$end
$version
	Icarus Verilog
$end
$timescale
	1ps
$end
$scope module dassign2_2_tb $end
$var wire 1 ! clk $end
$var wire 1 " done $end
$var wire 8 # out0 [7:0] $end
$var wire 8 $ out1 [7:0] $end
$var wire 8 % out2 [7:0] $end
$var wire 8 & out3 [7:0] $end
$var wire 1 ' ready $end
$var wire 1 ( short $end
$var wire 1 ) type $end
$var wire 8 * width [7:0] $end
$var integer 32 + i [31:0] $end
$var reg 1 , in $end
$scope module clock_gen $end
$var reg 1 - clk $end
$upscope $end
$scope module pulse_width $end
$var wire 1 ! clk $end
$var wire 1 . in $end
$var wire 1 ( long $end
$var wire 1 ' new $end
$var wire 8 / pwidth [7:0] $end
$var wire 8 0 resetcounter [7:0] $end
$var wire 8 1 sum [7:0] $end
$var wire 1 ) type $end
$scope module typeholder $end
$var wire 1 ! clk $end
$var wire 1 . d $end
$var reg 1 2 q $end
$upscope $end
$scope module resetcountermux $end
$var wire 8 3 a [7:0] $end
$var wire 8 4 b [7:0] $end
$var wire 1 ' sel $end
$var wire 8 5 y [7:0] $end
$upscope $end
$scope module addone $end
$var wire 8 6 a [7:0] $end
$var wire 8 7 b [7:0] $end
$var wire 8 8 sum [7:0] $end
$upscope $end
$scope module counter $end
$var wire 1 ! clk $end
$var wire 8 9 d [7:0] $end
$var reg 8 : q [7:0] $end
$upscope $end
$upscope $end
$scope module deserial $end
$var wire 1 ! clk $end
$var wire 2 ; cmd [1:0] $end
$var wire 2 < cmd_ctrl [1:0] $end
$var wire 1 " done $end
$var wire 1 = done_out $end
$var wire 1 . in $end
$var wire 1 > long $end
$var wire 1 ? new $end
$var wire 8 @ out0 [7:0] $end
$var wire 8 A out1 [7:0] $end
$var wire 8 B out2 [7:0] $end
$var wire 8 C out3 [7:0] $end
$var wire 8 D pwidth [7:0] $end
$var wire 1 E type $end
$scope module pulser $end
$var wire 1 ! clk $end
$var wire 1 . in $end
$var wire 1 > long $end
$var wire 1 ? new $end
$var wire 8 F pwidth [7:0] $end
$var wire 8 G resetcounter [7:0] $end
$var wire 8 H sum [7:0] $end
$var wire 1 E type $end
$scope module typeholder $end
$var wire 1 ! clk $end
$var wire 1 . d $end
$var reg 1 I q $end
$upscope $end
$scope module resetcountermux $end
$var wire 8 J a [7:0] $end
$var wire 8 K b [7:0] $end
$var wire 1 ? sel $end
$var wire 8 L y [7:0] $end
$upscope $end
$scope module addone $end
$var wire 8 M a [7:0] $end
$var wire 8 N b [7:0] $end
$var wire 8 O sum [7:0] $end
$upscope $end
$scope module counter $end
$var wire 1 ! clk $end
$var wire 8 P d [7:0] $end
$var reg 8 Q q [7:0] $end
$upscope $end
$upscope $end
$scope module control $end
$var wire 1 ! clk $end
$var wire 2 R cmd [1:0] $end
$var wire 1 = done $end
$var wire 1 > long $end
$var wire 1 E type $end
$upscope $end
$scope module cmd_mux $end
$var wire 2 S a [1:0] $end
$var wire 2 T b [1:0] $end
$var wire 1 ? sel $end
$var wire 2 U y [1:0] $end
$upscope $end
$scope module done_mux $end
$var wire 1 V a $end
$var wire 1 = b $end
$var wire 1 ? sel $end
$var wire 1 " y $end
$upscope $end
$scope module shift $end
$var wire 1 ! clk $end
$var wire 2 W cmd [1:0] $end
$var wire 8 X in [7:0] $end
$var wire 8 Y muxone_out [7:0] $end
$var wire 8 Z muxthree_out [7:0] $end
$var wire 8 [ muxtwo_out [7:0] $end
$var wire 8 \ muxzero_out [7:0] $end
$var wire 8 ] out0 [7:0] $end
$var wire 8 ^ out1 [7:0] $end
$var wire 8 _ out2 [7:0] $end
$var wire 8 ` out3 [7:0] $end
$scope module regzero $end
$var wire 1 ! clk $end
$var wire 8 a d [7:0] $end
$var reg 8 b q [7:0] $end
$upscope $end
$scope module regone $end
$var wire 1 ! clk $end
$var wire 8 c d [7:0] $end
$var reg 8 d q [7:0] $end
$upscope $end
$scope module regtwo $end
$var wire 1 ! clk $end
$var wire 8 e d [7:0] $end
$var reg 8 f q [7:0] $end
$upscope $end
$scope module regthree $end
$var wire 1 ! clk $end
$var wire 8 g d [7:0] $end
$var reg 8 h q [7:0] $end
$upscope $end
$scope module muxone $end
$var wire 8 i a [7:0] $end
$var wire 8 j b [7:0] $end
$var wire 8 k c [7:0] $end
$var wire 8 l d [7:0] $end
$var wire 2 m sel [1:0] $end
$var reg 8 n y [7:0] $end
$upscope $end
$scope module muxtwo $end
$var wire 8 o a [7:0] $end
$var wire 8 p b [7:0] $end
$var wire 8 q c [7:0] $end
$var wire 8 r d [7:0] $end
$var wire 2 s sel [1:0] $end
$var reg 8 t y [7:0] $end
$upscope $end
$scope module muxthree $end
$var wire 8 u a [7:0] $end
$var wire 8 v b [7:0] $end
$var wire 8 w c [7:0] $end
$var wire 8 x d [7:0] $end
$var wire 2 y sel [1:0] $end
$var reg 8 z y [7:0] $end
$upscope $end
$scope module muxfour $end
$var wire 8 { a [7:0] $end
$var wire 8 | b [7:0] $end
$var wire 8 } c [7:0] $end
$var wire 8 ~ d [7:0] $end
$var wire 2 !" sel [1:0] $end
$var reg 8 "" y [7:0] $end
$upscope $end
$upscope $end
$upscope $end
$upscope $end
$enddefinitions $end
#0
$dumpvars
bx ""
bx !"
b0 ~
bx }
bx |
b0 {
bx z
bx y
b0 x
bx w
bx v
b0 u
bx t
bx s
b0 r
bx q
bx p
b0 o
bx n
bx m
b0 l
bx k
bx j
b0 i
bx h
bx g
bx f
bx e
bx d
bx c
bx b
bx a
bx `
bx _
bx ^
bx ]
bx \
bx [
bx Z
bx Y
bx X
bx W
0V
bx U
bx T
b10 S
bx R
bx Q
bx P
bx O
b1 N
bx M
bx L
b0 K
bx J
xI
bx H
bx G
bx F
xE
bx D
bx C
bx B
bx A
bx @
x?
x>
x=
bx <
bx ;
bx :
bx 9
bx 8
b1 7
bx 6
bx 5
b0 4
bx 3
x2
bx 1
bx 0
bx /
0.
1-
0,
b0 +
bx *
x)
x(
x'
bx &
bx %
bx $
bx #
x"
1!
$end
#3000
b0 ""
b0 Z
b0 g
b0 z
b0 [
b0 e
b0 t
b0 Y
b0 c
b0 n
b0 \
b0 a
#25000
0-
0!
#50000
1-
1!
#51000
b1 +
#53000
0(
0=
0>
0'
0?
02
0)
0I
b10 <
b10 R
b10 T
0E
b0 b
b0 #
b0 @
b0 ]
b0 k
b0 p
b0 d
b0 $
b0 A
b0 ^
b0 q
b0 v
b0 f
b0 %
b0 B
b0 _
b0 w
b0 |
b0 h
b0 &
b0 C
b0 `
b0 }
#56000
0"
b10 ;
b10 U
b10 W
b10 m
b10 s
b10 y
b10 !"
#75000
0-
0!
#100000
1-
1!
#101000
bx0 <
bx0 R
bx0 T
x=
x(
x>
1'
1?
b10 +
1,
1.
#104000
bx0 ;
bx0 U
bx0 W
bx0 m
bx0 s
bx0 y
bx0 !"
x"
b1 1
b1 8
b1 9
b0 0
b0 5
b0 6
b1 H
b1 O
b1 P
b0 G
b0 L
b0 M
#125000
0-
0!
#150000
1-
1!
#151000
b11 +
#153000
0=
0'
0(
0?
0>
12
1)
b1 :
b1 *
b1 /
b1 3
1I
b1 <
b1 R
b1 T
1E
b1 Q
b1 D
b1 F
b1 J
b1 X
b1 j
#156000
b10 1
b10 8
b10 9
b1 0
b1 5
b1 6
b10 H
b10 O
b10 P
b1 G
b1 L
b1 M
0"
b10 ;
b10 U
b10 W
b10 m
b10 s
b10 y
b10 !"
#175000
0-
0!
#200000
1-
1!
#201000
b100 +
#203000
b10 Q
b10 D
b10 F
b10 J
b10 X
b10 j
b10 :
b10 *
b10 /
b10 3
#206000
b11 H
b11 O
b11 P
b10 G
b10 L
b10 M
b11 1
b11 8
b11 9
b10 0
b10 5
b10 6
#225000
0-
0!
#250000
1-
1!
#251000
b101 +
#253000
b11 :
b11 *
b11 /
b11 3
b11 Q
b11 D
b11 F
b11 J
b11 X
b11 j
#256000
b100 1
b100 8
b100 9
b11 0
b11 5
b11 6
b100 H
b100 O
b100 P
b11 G
b11 L
b11 M
#275000
0-
0!
#300000
1-
1!
#301000
b110 +
#303000
b100 Q
b100 D
b100 F
b100 J
b100 X
b100 j
b100 :
b100 *
b100 /
b100 3
#306000
b101 H
b101 O
b101 P
b100 G
b100 L
b100 M
b101 1
b101 8
b101 9
b100 0
b100 5
b100 6
#325000
0-
0!
#350000
1-
1!
#351000
b111 +
#353000
b101 :
b101 *
b101 /
b101 3
b101 Q
b101 D
b101 F
b101 J
b101 X
b101 j
#356000
b110 1
b110 8
b110 9
b101 0
b101 5
b101 6
b110 H
b110 O
b110 P
b101 G
b101 L
b101 M
#375000
0-
0!
#400000
1-
1!
#401000
1(
1>
1'
1?
b1000 +
0,
0.
#403000
b110 Q
b110 D
b110 F
b110 J
b110 X
b110 j
b110 :
b110 *
b110 /
b110 3
#404000
b1 1
b1 8
b1 9
b0 0
b0 5
b0 6
b1 H
b1 O
b1 P
b0 G
b0 L
b0 M
b1 ;
b1 U
b1 W
b1 m
b1 s
b1 y
b1 !"
#407000
b110 n
b110 \
b110 a
#425000
0-
0!
#450000
1-
1!
#451000
0(
0>
0'
0?
b1001 +
1,
1.
#453000
1'
1?
02
0)
b1 :
b1 *
b1 /
b1 3
0I
b10 <
b10 R
b10 T
0E
b1 Q
b1 D
b1 F
b1 J
b1 X
b1 j
b110 b
b110 #
b110 @
b110 ]
b110 k
b110 p
#456000
b110 t
b110 Y
b110 c
b1 n
b1 \
b1 a
b10 ;
b10 U
b10 W
b10 m
b10 s
b10 y
b10 !"
#459000
b0 t
b0 Y
b0 c
b110 n
b110 \
b110 a
#475000
0-
0!
#500000
1-
1!
#501000
b1010 +
#503000
0?
0'
1I
b1 <
b1 R
b1 T
1E
12
1)
#506000
b10 H
b10 O
b10 P
b1 G
b1 L
b1 M
b10 1
b10 8
b10 9
b1 0
b1 5
b1 6
#525000
0-
0!
#550000
1-
1!
#551000
1'
1?
b1011 +
0,
0.
#553000
b10 :
b10 *
b10 /
b10 3
b10 Q
b10 D
b10 F
b10 J
b10 X
b10 j
#554000
b1 1
b1 8
b1 9
b0 0
b0 5
b0 6
b1 H
b1 O
b1 P
b0 G
b0 L
b0 M
b1 ;
b1 U
b1 W
b1 m
b1 s
b1 y
b1 !"
#557000
b110 t
b110 Y
b110 c
b10 n
b10 \
b10 a
#575000
0-
0!
#600000
1-
1!
#601000
0'
0?
b1100 +
1,
1.
#603000
1?
1'
b110 d
b110 $
b110 A
b110 ^
b110 q
b110 v
b10 b
b10 #
b10 @
b10 ]
b10 k
b10 p
b1 Q
b1 D
b1 F
b1 J
b1 X
b1 j
0I
b10 <
b10 R
b10 T
0E
b1 :
b1 *
b1 /
b1 3
02
0)
#606000
b110 z
b110 [
b110 e
b10 t
b10 Y
b10 c
b1 n
b1 \
b1 a
b10 ;
b10 U
b10 W
b10 m
b10 s
b10 y
b10 !"
#609000
b0 z
b0 [
b0 e
b110 t
b110 Y
b110 c
b10 n
b10 \
b10 a
#625000
0-
0!
#650000
1-
1!
#651000
b1101 +
#653000
0'
0?
12
1)
1I
b1 <
b1 R
b1 T
1E
#656000
b10 1
b10 8
b10 9
b1 0
b1 5
b1 6
b10 H
b10 O
b10 P
b1 G
b1 L
b1 M
#675000
0-
0!
#700000
1-
1!
#701000
1'
1?
b1110 +
0,
0.
#703000
b10 Q
b10 D
b10 F
b10 J
b10 X
b10 j
b10 :
b10 *
b10 /
b10 3
#704000
b1 1
b1 8
b1 9
b0 0
b0 5
b0 6
b1 H
b1 O
b1 P
b0 G
b0 L
b0 M
b1 ;
b1 U
b1 W
b1 m
b1 s
b1 y
b1 !"
#707000
b110 z
b110 [
b110 e
b10 t
b10 Y
b10 c
#725000
0-
0!
#750000
1-
1!
#751000
0'
0?
b1111 +
1,
1.
#753000
1'
1?
02
0)
b1 :
b1 *
b1 /
b1 3
0I
b10 <
b10 R
b10 T
0E
b1 Q
b1 D
b1 F
b1 J
b1 X
b1 j
b10 d
b10 $
b10 A
b10 ^
b10 q
b10 v
b110 f
b110 %
b110 B
b110 _
b110 w
b110 |
#756000
b1 n
b1 \
b1 a
b110 ""
b110 Z
b110 g
b10 z
b10 [
b10 e
b10 ;
b10 U
b10 W
b10 m
b10 s
b10 y
b10 !"
#759000
b0 ""
b0 Z
b0 g
b110 z
b110 [
b110 e
b10 n
b10 \
b10 a
#775000
0-
0!
#800000
1-
1!
#801000
0'
0?
b10000 +
0,
0.
#803000
1?
1'
1I
b1 <
b1 R
b1 T
1E
12
1)
#806000
b1 ;
b1 U
b1 W
b1 m
b1 s
b1 y
b1 !"
#809000
b110 ""
b110 Z
b110 g
b10 z
b10 [
b10 e
b1 n
b1 \
b1 a
#825000
0-
0!
#850000
1-
1!
#851000
0'
0?
b10001 +
1,
1.
#853000
1'
1?
02
0)
0I
b10 <
b10 R
b10 T
0E
b1 b
b1 #
b1 @
b1 ]
b1 k
b1 p
b10 f
b10 %
b10 B
b10 _
b10 w
b10 |
b110 h
b110 &
b110 C
b110 `
b110 }
#856000
b1 t
b1 Y
b1 c
b10 ""
b10 Z
b10 g
b10 ;
b10 U
b10 W
b10 m
b10 s
b10 y
b10 !"
#859000
b110 ""
b110 Z
b110 g
b10 t
b10 Y
b10 c
#875000
0-
0!
#900000
1-
1!
#901000
0'
0?
b10010 +
0,
0.
#903000
1?
1'
1I
b1 <
b1 R
b1 T
1E
12
1)
#906000
b1 ;
b1 U
b1 W
b1 m
b1 s
b1 y
b1 !"
#909000
b10 ""
b10 Z
b10 g
b1 t
b1 Y
b1 c
#925000
0-
0!
#950000
1-
1!
#951000
0'
0?
b10011 +
1,
1.
#953000
1'
1?
02
0)
0I
b10 <
b10 R
b10 T
0E
b1 d
b1 $
b1 A
b1 ^
b1 q
b1 v
b10 h
b10 &
b10 C
b10 `
b10 }
#956000
b1 z
b1 [
b1 e
b10 ;
b10 U
b10 W
b10 m
b10 s
b10 y
b10 !"
#959000
b10 z
b10 [
b10 e
#975000
0-
0!
#1000000
1-
1!
#1001000
b10100 +
#1003000
0?
0'
1I
b1 <
b1 R
b1 T
1E
12
1)
#1006000
b10 H
b10 O
b10 P
b1 G
b1 L
b1 M
b10 1
b10 8
b10 9
b1 0
b1 5
b1 6
#1025000
0-
0!
#1050000
1-
1!
#1051000
1'
1?
b10101 +
0,
0.
#1053000
b10 :
b10 *
b10 /
b10 3
b10 Q
b10 D
b10 F
b10 J
b10 X
b10 j
#1054000
b1 1
b1 8
b1 9
b0 0
b0 5
b0 6
b1 H
b1 O
b1 P
b0 G
b0 L
b0 M
b1 ;
b1 U
b1 W
b1 m
b1 s
b1 y
b1 !"
#1057000
b1 z
b1 [
b1 e
b10 n
b10 \
b10 a
#1075000
0-
0!
#1100000
1-
1!
#1101000
0'
0?
b10110 +
1,
1.
#1103000
1?
1'
b1 f
b1 %
b1 B
b1 _
b1 w
b1 |
b10 b
b10 #
b10 @
b10 ]
b10 k
b10 p
b1 Q
b1 D
b1 F
b1 J
b1 X
b1 j
0I
b10 <
b10 R
b10 T
0E
b1 :
b1 *
b1 /
b1 3
02
0)
#1106000
b1 ""
b1 Z
b1 g
b10 t
b10 Y
b10 c
b1 n
b1 \
b1 a
b10 ;
b10 U
b10 W
b10 m
b10 s
b10 y
b10 !"
#1109000
b10 ""
b10 Z
b10 g
b1 t
b1 Y
b1 c
b10 n
b10 \
b10 a
#1125000
0-
0!
#1150000
1-
1!
#1151000
0'
0?
b10111 +
0,
0.
#1153000
1'
1?
12
1)
1I
b1 <
b1 R
b1 T
1E
#1156000
b1 ;
b1 U
b1 W
b1 m
b1 s
b1 y
b1 !"
#1159000
b1 ""
b1 Z
b1 g
b10 t
b10 Y
b10 c
b1 n
b1 \
b1 a
#1175000
0-
0!
#1200000
1-
1!
#1201000
b11000 +
#1203000
0?
0'
b1 h
b1 &
b1 C
b1 `
b1 }
b10 d
b10 $
b10 A
b10 ^
b10 q
b10 v
b1 b
b1 #
b1 @
b1 ]
b1 k
b1 p
0I
b10 <
b10 R
b10 T
0E
02
0)
#1206000
b10 z
b10 [
b10 e
b1 t
b1 Y
b1 c
b10 H
b10 O
b10 P
b1 G
b1 L
b1 M
b10 1
b10 8
b10 9
b1 0
b1 5
b1 6
b10 ;
b10 U
b10 W
b10 m
b10 s
b10 y
b10 !"
#1209000
b1 z
b1 [
b1 e
b10 t
b10 Y
b10 c
#1225000
0-
0!
#1250000
1-
1!
#1251000
b11001 +
#1253000
b10 :
b10 *
b10 /
b10 3
b10 Q
b10 D
b10 F
b10 J
b10 X
b10 j
#1256000
b11 1
b11 8
b11 9
b10 0
b10 5
b10 6
b11 H
b11 O
b11 P
b10 G
b10 L
b10 M
#1275000
0-
0!
#1300000
1-
1!
#1301000
1'
1?
b11010 +
1,
1.
#1303000
b0 <
b0 R
b0 T
1=
1>
1(
b11 Q
b11 D
b11 F
b11 J
b11 X
b11 j
b11 :
b11 *
b11 /
b11 3
#1304000
b1 1
b1 8
b1 9
b0 0
b0 5
b0 6
b1 H
b1 O
b1 P
b0 G
b0 L
b0 M
#1306000
b0 ;
b0 U
b0 W
b0 m
b0 s
b0 y
b0 !"
1"
#1309000
b0 ""
b0 Z
b0 g
b0 z
b0 [
b0 e
b0 t
b0 Y
b0 c
b0 n
b0 \
b0 a
#1325000
0-
0!
#1350000
1-
1!
#1351000
b10 <
b10 R
b10 T
0=
0(
0>
0'
0?
b11011 +
0,
0.
#1353000
1'
1?
12
1)
b1 :
b1 *
b1 /
b1 3
1I
b1 <
b1 R
b1 T
1E
b1 Q
b1 D
b1 F
b1 J
b1 X
b1 j
b0 b
b0 #
b0 @
b0 ]
b0 k
b0 p
b0 d
b0 $
b0 A
b0 ^
b0 q
b0 v
b0 f
b0 %
b0 B
b0 _
b0 w
b0 |
b0 h
b0 &
b0 C
b0 `
b0 }
#1354000
0"
#1356000
b1 ;
b1 U
b1 W
b1 m
b1 s
b1 y
b1 !"
#1359000
b1 n
b1 \
b1 a
#1375000
0-
0!
#1400000
1-
1!
#1401000
0'
0?
b11100 +
1,
1.
#1403000
1?
1'
b1 b
b1 #
b1 @
b1 ]
b1 k
b1 p
0I
b10 <
b10 R
b10 T
0E
02
0)
#1406000
b1 t
b1 Y
b1 c
b10 ;
b10 U
b10 W
b10 m
b10 s
b10 y
b10 !"
#1409000
b0 t
b0 Y
b0 c
#1425000
0-
0!
#1450000
1-
1!
#1451000
b11101 +
#1453000
0'
0?
12
1)
1I
b1 <
b1 R
b1 T
1E
#1456000
b10 1
b10 8
b10 9
b1 0
b1 5
b1 6
b10 H
b10 O
b10 P
b1 G
b1 L
b1 M
#1475000
0-
0!
#1500000
1-
1!
#1501000
b11110 +
#1503000
b10 Q
b10 D
b10 F
b10 J
b10 X
b10 j
b10 :
b10 *
b10 /
b10 3
#1506000
b11 H
b11 O
b11 P
b10 G
b10 L
b10 M
b11 1
b11 8
b11 9
b10 0
b10 5
b10 6
#1525000
0-
0!
#1550000
1-
1!
#1551000
b11111 +
#1553000
b11 :
b11 *
b11 /
b11 3
b11 Q
b11 D
b11 F
b11 J
b11 X
b11 j
#1556000
b100 1
b100 8
b100 9
b11 0
b11 5
b11 6
b100 H
b100 O
b100 P
b11 G
b11 L
b11 M
#1575000
0-
0!
#1600000
1-
1!
#1601000
1(
1>
1'
1?
b100000 +
0,
0.
#1603000
b100 Q
b100 D
b100 F
b100 J
b100 X
b100 j
b100 :
b100 *
b100 /
b100 3
#1604000
b1 1
b1 8
b1 9
b0 0
b0 5
b0 6
b1 H
b1 O
b1 P
b0 G
b0 L
b0 M
b1 ;
b1 U
b1 W
b1 m
b1 s
b1 y
b1 !"
#1607000
b1 t
b1 Y
b1 c
b100 n
b100 \
b100 a
#1625000
0-
0!
#1650000
1-
1!
#1651000
b100001 +
#1653000
0'
0(
0?
0>
02
0)
b1 :
b1 *
b1 /
b1 3
0I
b10 <
b10 R
b10 T
0E
b1 Q
b1 D
b1 F
b1 J
b1 X
b1 j
b100 b
b100 #
b100 @
b100 ]
b100 k
b100 p
b1 d
b1 $
b1 A
b1 ^
b1 q
b1 v
#1656000
b1 n
b1 \
b1 a
b1 z
b1 [
b1 e
b100 t
b100 Y
b100 c
b10 1
b10 8
b10 9
b1 0
b1 5
b1 6
b10 H
b10 O
b10 P
b1 G
b1 L
b1 M
b10 ;
b10 U
b10 W
b10 m
b10 s
b10 y
b10 !"
#1659000
b0 z
b0 [
b0 e
b1 t
b1 Y
b1 c
b100 n
b100 \
b100 a
#1675000
0-
0!
#1700000
1-
1!
#1701000
b100010 +
#1703000
b10 Q
b10 D
b10 F
b10 J
b10 X
b10 j
b10 :
b10 *
b10 /
b10 3
#1706000
b11 H
b11 O
b11 P
b10 G
b10 L
b10 M
b11 1
b11 8
b11 9
b10 0
b10 5
b10 6
#1725000
0-
0!
#1750000
1-
1!
#1751000
b100011 +
#1753000
b11 :
b11 *
b11 /
b11 3
b11 Q
b11 D
b11 F
b11 J
b11 X
b11 j
#1756000
b100 1
b100 8
b100 9
b11 0
b11 5
b11 6
b100 H
b100 O
b100 P
b11 G
b11 L
b11 M
#1775000
0-
0!
#1800000
1-
1!
#1801000
b0 <
b0 R
b0 T
1=
1(
1>
1'
1?
b100100 +
1,
1.
#1803000
b100 Q
b100 D
b100 F
b100 J
b100 X
b100 j
b100 :
b100 *
b100 /
b100 3
#1804000
b0 ;
b0 U
b0 W
b0 m
b0 s
b0 y
b0 !"
1"
b1 1
b1 8
b1 9
b0 0
b0 5
b0 6
b1 H
b1 O
b1 P
b0 G
b0 L
b0 M
#1807000
b0 t
b0 Y
b0 c
b0 n
b0 \
b0 a
#1825000
0-
0!
#1850000
1-
1!
#1851000
b10 <
b10 R
b10 T
0=
0(
0>
0'
0?
b100101 +
0,
0.
#1853000
1'
1?
12
1)
b1 :
b1 *
b1 /
b1 3
1I
b1 <
b1 R
b1 T
1E
b1 Q
b1 D
b1 F
b1 J
b1 X
b1 j
b0 b
b0 #
b0 @
b0 ]
b0 k
b0 p
b0 d
b0 $
b0 A
b0 ^
b0 q
b0 v
#1854000
0"
#1856000
b1 ;
b1 U
b1 W
b1 m
b1 s
b1 y
b1 !"
#1859000
b1 n
b1 \
b1 a
#1875000
0-
0!
#1900000
1-
1!
#1901000
0'
0?
b100110 +
1,
1.
#1903000
1?
1'
b1 b
b1 #
b1 @
b1 ]
b1 k
b1 p
0I
b10 <
b10 R
b10 T
0E
02
0)
#1906000
b1 t
b1 Y
b1 c
b10 ;
b10 U
b10 W
b10 m
b10 s
b10 y
b10 !"
#1909000
b0 t
b0 Y
b0 c
#1925000
0-
0!
#1950000
1-
1!
#1951000
b100111 +
#1953000
0'
0?
12
1)
1I
b1 <
b1 R
b1 T
1E
#1956000
b10 1
b10 8
b10 9
b1 0
b1 5
b1 6
b10 H
b10 O
b10 P
b1 G
b1 L
b1 M
#1975000
0-
0!
#2000000
1-
1!
#2001000
b101000 +
#2003000
b10 Q
b10 D
b10 F
b10 J
b10 X
b10 j
b10 :
b10 *
b10 /
b10 3
#2006000
b11 H
b11 O
b11 P
b10 G
b10 L
b10 M
b11 1
b11 8
b11 9
b10 0
b10 5
b10 6
#2025000
0-
0!
#2050000
1-
1!
#2051000
b101001 +
#2053000
b11 :
b11 *
b11 /
b11 3
b11 Q
b11 D
b11 F
b11 J
b11 X
b11 j
#2056000
b100 1
b100 8
b100 9
b11 0
b11 5
b11 6
b100 H
b100 O
b100 P
b11 G
b11 L
b11 M
#2075000
0-
0!
#2100000
1-
1!
#2101000
b101010 +
#2103000
b100 Q
b100 D
b100 F
b100 J
b100 X
b100 j
b100 :
b100 *
b100 /
b100 3
#2106000
b101 H
b101 O
b101 P
b100 G
b100 L
b100 M
b101 1
b101 8
b101 9
b100 0
b100 5
b100 6
#2125000
0-
0!
#2150000
1-
1!
#2151000
1(
1>
1'
1?
b101011 +
0,
0.
#2153000
b101 :
b101 *
b101 /
b101 3
b101 Q
b101 D
b101 F
b101 J
b101 X
b101 j
#2154000
b1 1
b1 8
b1 9
b0 0
b0 5
b0 6
b1 H
b1 O
b1 P
b0 G
b0 L
b0 M
b1 ;
b1 U
b1 W
b1 m
b1 s
b1 y
b1 !"
#2157000
b1 t
b1 Y
b1 c
b101 n
b101 \
b101 a
#2175000
0-
0!
#2200000
1-
1!
#2201000
b101100 +
#2203000
0>
0?
0(
0'
b1 d
b1 $
b1 A
b1 ^
b1 q
b1 v
b101 b
b101 #
b101 @
b101 ]
b101 k
b101 p
b1 Q
b1 D
b1 F
b1 J
b1 X
b1 j
0I
b10 <
b10 R
b10 T
0E
b1 :
b1 *
b1 /
b1 3
02
0)
#2206000
b1 z
b1 [
b1 e
b101 t
b101 Y
b101 c
b1 n
b1 \
b1 a
b10 H
b10 O
b10 P
b1 G
b1 L
b1 M
b10 1
b10 8
b10 9
b1 0
b1 5
b1 6
b10 ;
b10 U
b10 W
b10 m
b10 s
b10 y
b10 !"
#2209000
b0 z
b0 [
b0 e
b1 t
b1 Y
b1 c
b101 n
b101 \
b101 a
#2225000
0-
0!
#2250000
1-
1!
#2251000
1'
1?
b101101 +
1,
1.
#2253000
b10 :
b10 *
b10 /
b10 3
b10 Q
b10 D
b10 F
b10 J
b10 X
b10 j
#2254000
b1 1
b1 8
b1 9
b0 0
b0 5
b0 6
b1 H
b1 O
b1 P
b0 G
b0 L
b0 M
#2275000
0-
0!
#2300000
1-
1!
#2301000
b101110 +
#2303000
0?
0'
b1 Q
b1 D
b1 F
b1 J
b1 X
b1 j
1I
b1 <
b1 R
b1 T
1E
b1 :
b1 *
b1 /
b1 3
12
1)
#2306000
b10 H
b10 O
b10 P
b1 G
b1 L
b1 M
b10 1
b10 8
b10 9
b1 0
b1 5
b1 6
#2325000
0-
0!
#2350000
1-
1!
#2351000
b101111 +
#2353000
b10 :
b10 *
b10 /
b10 3
b10 Q
b10 D
b10 F
b10 J
b10 X
b10 j
#2356000
b11 1
b11 8
b11 9
b10 0
b10 5
b10 6
b11 H
b11 O
b11 P
b10 G
b10 L
b10 M
#2375000
0-
0!
#2400000
1-
1!
#2401000
1'
1?
b110000 +
0,
0.
#2403000
1>
1(
b11 Q
b11 D
b11 F
b11 J
b11 X
b11 j
b11 :
b11 *
b11 /
b11 3
#2404000
b1 1
b1 8
b1 9
b0 0
b0 5
b0 6
b1 H
b1 O
b1 P
b0 G
b0 L
b0 M
b1 ;
b1 U
b1 W
b1 m
b1 s
b1 y
b1 !"
#2407000
b1 z
b1 [
b1 e
b101 t
b101 Y
b101 c
b11 n
b11 \
b11 a
#2425000
0-
0!
#2450000
1-
1!
#2451000
b110001 +
#2453000
0'
0(
0?
0>
02
0)
b1 :
b1 *
b1 /
b1 3
0I
b10 <
b10 R
b10 T
0E
b1 Q
b1 D
b1 F
b1 J
b1 X
b1 j
b11 b
b11 #
b11 @
b11 ]
b11 k
b11 p
b101 d
b101 $
b101 A
b101 ^
b101 q
b101 v
b1 f
b1 %
b1 B
b1 _
b1 w
b1 |
#2456000
b1 n
b1 \
b1 a
b11 t
b11 Y
b11 c
b1 ""
b1 Z
b1 g
b101 z
b101 [
b101 e
b10 1
b10 8
b10 9
b1 0
b1 5
b1 6
b10 H
b10 O
b10 P
b1 G
b1 L
b1 M
b10 ;
b10 U
b10 W
b10 m
b10 s
b10 y
b10 !"
#2459000
b0 ""
b0 Z
b0 g
b1 z
b1 [
b1 e
b101 t
b101 Y
b101 c
b11 n
b11 \
b11 a
#2475000
0-
0!
#2500000
1-
1!
#2501000
b110010 +
#2503000
b10 Q
b10 D
b10 F
b10 J
b10 X
b10 j
b10 :
b10 *
b10 /
b10 3
#2506000
b11 H
b11 O
b11 P
b10 G
b10 L
b10 M
b11 1
b11 8
b11 9
b10 0
b10 5
b10 6
#2525000
0-
0!
#2550000
1-
1!
#2551000
b110011 +
#2553000
b11 :
b11 *
b11 /
b11 3
b11 Q
b11 D
b11 F
b11 J
b11 X
b11 j
#2556000
b100 1
b100 8
b100 9
b11 0
b11 5
b11 6
b100 H
b100 O
b100 P
b11 G
b11 L
b11 M
#2575000
0-
0!
#2600000
1-
1!
#2601000
b110100 +
#2603000
b100 Q
b100 D
b100 F
b100 J
b100 X
b100 j
b100 :
b100 *
b100 /
b100 3
#2606000
b101 H
b101 O
b101 P
b100 G
b100 L
b100 M
b101 1
b101 8
b101 9
b100 0
b100 5
b100 6
#2625000
0-
0!
#2650000
1-
1!
#2651000
b0 <
b0 R
b0 T
1=
1(
1>
1'
1?
b110101 +
1,
1.
#2653000
b101 :
b101 *
b101 /
b101 3
b101 Q
b101 D
b101 F
b101 J
b101 X
b101 j
#2654000
b0 ;
b0 U
b0 W
b0 m
b0 s
b0 y
b0 !"
1"
b1 1
b1 8
b1 9
b0 0
b0 5
b0 6
b1 H
b1 O
b1 P
b0 G
b0 L
b0 M
#2657000
b0 z
b0 [
b0 e
b0 t
b0 Y
b0 c
b0 n
b0 \
b0 a
#2675000
0-
0!
#2700000
1-
1!
#2701000
b10 <
b10 R
b10 T
0=
0(
0>
0'
0?
b110110 +
0,
0.
#2703000
1?
1'
b0 f
b0 %
b0 B
b0 _
b0 w
b0 |
b0 d
b0 $
b0 A
b0 ^
b0 q
b0 v
b0 b
b0 #
b0 @
b0 ]
b0 k
b0 p
b1 Q
b1 D
b1 F
b1 J
b1 X
b1 j
1I
b1 <
b1 R
b1 T
1E
b1 :
b1 *
b1 /
b1 3
12
1)
#2704000
0"
#2706000
b1 ;
b1 U
b1 W
b1 m
b1 s
b1 y
b1 !"
#2709000
b1 n
b1 \
b1 a
#2725000
0-
0!
#2750000
1-
1!
#2751000
b110111 +
#2753000
0'
0?
02
0)
0I
b10 <
b10 R
b10 T
0E
b1 b
b1 #
b1 @
b1 ]
b1 k
b1 p
